Modeling: Statistical Analysis of Collision Severity
…
death_by_vehicle <- mvc_death |>
  group_by(vehicle_type_code_1) |>
  summarise(
    n          = n(),
    deaths     = sum(death, na.rm = TRUE),
    death_rate = mean(death, na.rm = TRUE)
  ) |>
  filter(n >= 20) |>
  arrange(desc(death_rate))

death_by_vehicle

## # A tibble: 141 × 4
##    vehicle_type_code_1     n deaths death_rate
##    <chr>               <int>  <int>      <dbl>
##  1 Minicycle              29      2     0.0690
##  2 Minibike               40      2     0.05  
##  3 PEDICAB                24      1     0.0417
##  4 FORKL                  30      1     0.0333
##  5 Motorcycle           8944    223     0.0249
##  6 Trailer                41      1     0.0244
##  7 Motorscooter          795     17     0.0214
##  8 MOTORCYCLE           3605     66     0.0183
##  9 Motorbike             535      9     0.0168
## 10 Concrete Mixer        475      7     0.0147
## # ℹ 131 more rows

death_by_factor <- mvc_death |>
  group_by(contributing_factor_vehicle_1) |>
  summarise(
    n          = n(),
    deaths     = sum(death, na.rm = TRUE),
    death_rate = mean(death, na.rm = TRUE)
  ) |>
  filter(n >= 20) |>
  arrange(desc(death_rate))

death_by_factor

## # A tibble: 61 × 4
##    contributing_factor_vehicle_1                             n deaths death_rate
##    <chr>                                                 <int>  <int>      <dbl>
##  1 Illnes                                                 1759     50    0.0284 
##  2 Tinted Windows                                          188      3    0.0160 
##  3 Unsafe Speed                                          30996    345    0.0111 
##  4 Pedestrian/Bicyclist/Other Pedestrian Error/Confusion 10782     97    0.00900
##  5 Drugs (illegal)                                         893      8    0.00896
##  6 Drugs (Illegal)                                         366      3    0.00820
##  7 Traffic Control Disregarded                           36654    245    0.00668
##  8 Other Lighting Defects                                  182      1    0.00549
##  9 Passenger Distraction                                  7861     42    0.00534
## 10 Tow Hitch Defective                                     214      1    0.00467
## # ℹ 51 more rows
…
